com\citi\trading\strategy\PositionRepository.class
com\citi\trading\WebExceptions$NotFound.class
com\citi\trading\strategy\StrategyRepository.class
com\citi\trading\strategy\Trader$1.class
com\citi\trading\Market$TimeoutMonitor.class
com\citi\trading\Trade$Result.class
com\citi\trading\WebExceptions$Error.class
com\citi\trading\strategy\Trader$Closer.class
com\citi\trading\pricing\Pricing.class
com\citi\trading\WebExceptions$BadRequest.class
com\citi\trading\pricing\PricePointRepository.class
com\citi\trading\strategy\TwoMovingAveragesTrader.class
com\citi\trading\strategy\StrategyPersistenceImpl.class
com\citi\trading\WebExceptions$Conflict.class
com\citi\trading\strategy\Position.class
com\citi\trading\Market$1.class
com\citi\trading\HFTrader.class
com\citi\trading\strategy\Trader.class
com\citi\trading\strategy\Strategy.class
com\citi\trading\WebExceptions$WebException.class
com\citi\trading\strategy\BollingerBandsTrader.class
com\citi\trading\strategy\StrategyPersistence.class
com\citi\trading\Market.class
com\citi\trading\strategy\ActiveTraders.class
com\citi\trading\strategy\TraderService.class
com\citi\trading\Trade.class
com\citi\trading\pricing\PricingSource.class
com\citi\trading\strategy\BollingerBands.class
com\citi\trading\OrderPlacer.class
com\citi\trading\pricing\PriceData.class
com\citi\trading\strategy\TwoMovingAverages.class
com\citi\trading\WebExceptions.class
com\citi\trading\TradeRepository.class
com\citi\trading\pricing\PricePoint.class
com\citi\trading\strategy\Trader$Opener.class
