-------------------------------------------------------------------------------
Test set: com.citi.trading.strategy.TraderTest
-------------------------------------------------------------------------------
Tests run: 11, Failures: 0, Errors: 0, Skipped: 0, Time elapsed: 0.072 sec
